<?xml version="1.0" encoding="utf-8"?>
<!-- Generator: Adobe Illustrator 23.0.6, SVG Export Plug-In . SVG Version: 6.00 Build 0)  -->
<svg version="1.1" id="Layer_1" xmlns="http://www.w3.org/2000/svg" xmlns:xlink="http://www.w3.org/1999/xlink" x="0px" y="0px"
	 viewBox="0 0 10.7 10.7" style="enable-background:new 0 0 10.7 10.7;" xml:space="preserve">
<style type="text/css">
	.st0{fill:#CCF9EA;}
	.st1{fill:#00E194;}
</style>
<circle class="st0" cx="5.4" cy="5.4" r="5.1"/>
<path class="st1" d="M6.8,6.7h-3c-0.2,0-0.3-0.2-0.2-0.4l1.5-2.3c0.1-0.2,0.4-0.2,0.5,0l1.5,2.3C7.2,6.4,7.1,6.7,6.8,6.7z"/>
</svg>
