<?xml version="1.0" encoding="utf-8"?>
<!-- Generator: Adobe Illustrator 23.0.6, SVG Export Plug-In . SVG Version: 6.00 Build 0)  -->
<svg width="23" height="6" version="1.1" id="Layer_1" xmlns="http://www.w3.org/2000/svg" xmlns:xlink="http://www.w3.org/1999/xlink" x="0px" y="0px"
	 viewBox="0 0 23 4.5" style="enable-background:new 0 0 23 4.5;" xml:space="preserve">
<style type="text/css">
	.st0{fill:#FFFFFF;}
</style>
<g>
	<path class="st0" d="M4.5,1.7H3.4l0.6-1C4.1,0.5,4,0.2,3.8,0.1C3.5-0.1,3.2,0,3.1,0.3l-0.6,1l-0.6-1C1.8,0,1.5-0.1,1.3,0.1
		C1,0.2,0.9,0.5,1.1,0.8l0.6,1H0.5C0.2,1.7,0,2,0,2.2s0.2,0.5,0.5,0.5h1.1l-0.6,1C0.9,4,1,4.3,1.2,4.4c0.1,0,0.2,0.1,0.3,0.1
		c0.2,0,0.3-0.1,0.4-0.3l0.6-1l0.6,1c0.1,0.2,0.3,0.3,0.4,0.3c0.1,0,0.2,0,0.3-0.1C4,4.3,4.1,4,3.9,3.7l-0.6-1h1.1
		C4.8,2.7,5,2.5,5,2.2S4.8,1.7,4.5,1.7z"/>
	<path class="st0" d="M10.5,1.7H9.4l0.6-1c0.1-0.2,0.1-0.5-0.2-0.7C9.5-0.1,9.2,0,9.1,0.3l-0.6,1l-0.6-1C7.8,0,7.5-0.1,7.3,0.1
		C7,0.2,6.9,0.5,7.1,0.8l0.6,1H6.5C6.2,1.7,6,2,6,2.2s0.2,0.5,0.5,0.5h1.1l-0.6,1C6.9,4,7,4.3,7.3,4.4c0.1,0,0.2,0.1,0.3,0.1
		c0.2,0,0.3-0.1,0.4-0.3l0.6-1l0.6,1c0.1,0.2,0.3,0.3,0.4,0.3c0.1,0,0.2,0,0.3-0.1C10,4.3,10.1,4,9.9,3.7l-0.6-1h1.1
		c0.3,0,0.5-0.2,0.5-0.5S10.8,1.7,10.5,1.7z"/>
	<path class="st0" d="M16.5,1.7h-1.1l0.6-1c0.1-0.2,0.1-0.5-0.2-0.7c-0.2-0.1-0.5-0.1-0.7,0.2l-0.6,1l-0.6-1
		c-0.1-0.2-0.4-0.3-0.7-0.2c-0.2,0.1-0.3,0.4-0.2,0.7l0.6,1h-1.1C12.2,1.7,12,2,12,2.2s0.2,0.5,0.5,0.5h1.1l-0.6,1
		C12.9,4,13,4.3,13.2,4.4c0.1,0,0.2,0.1,0.3,0.1c0.2,0,0.3-0.1,0.4-0.3l0.6-1l0.6,1c0.1,0.2,0.3,0.3,0.4,0.3c0.1,0,0.2,0,0.3-0.1
		C16,4.3,16.1,4,15.9,3.7l-0.6-1h1.1c0.3,0,0.5-0.2,0.5-0.5S16.8,1.7,16.5,1.7z"/>
	<path class="st0" d="M22.5,1.7h-1.1l0.6-1c0.1-0.2,0.1-0.5-0.2-0.7c-0.2-0.1-0.5-0.1-0.7,0.2l-0.6,1l-0.6-1
		c-0.1-0.2-0.4-0.3-0.7-0.2s-0.3,0.4-0.2,0.7l0.6,1h-1.1C18.2,1.7,18,2,18,2.2s0.2,0.5,0.5,0.5h1.1l-0.6,1C18.9,4,19,4.3,19.3,4.4
		c0.1,0,0.2,0.1,0.3,0.1c0.2,0,0.3-0.1,0.4-0.3l0.6-1l0.6,1c0.1,0.2,0.3,0.3,0.4,0.3c0.1,0,0.2,0,0.3-0.1C22,4.3,22.1,4,21.9,3.7
		l-0.6-1h1.1c0.3,0,0.5-0.2,0.5-0.5S22.8,1.7,22.5,1.7z"/>
</g>
</svg>
