<?xml version="1.0" encoding="utf-8"?>
<!-- Generator: Adobe Illustrator 23.0.6, SVG Export Plug-In . SVG Version: 6.00 Build 0)  -->
<svg width="20" version="1.1" id="Layer_1" xmlns="http://www.w3.org/2000/svg" xmlns:xlink="http://www.w3.org/1999/xlink" x="0px" y="0px"
	 viewBox="0 0 78.7 78.4" style="enable-background:new 0 0 78.7 78.4;" xml:space="preserve">
<path class="st0" d="M67,73.3c-1.5,0-3.1-0.6-4.2-1.8L7.1,15.8c-2.3-2.3-2.3-6.1,0-8.5c2.3-2.3,6.1-2.3,8.5,0L71.2,63
	c2.3,2.3,2.3,6.1,0,8.5C70.1,72.7,68.5,73.3,67,73.3z"/>
<path class="st0" d="M11.3,73.3c-1.5,0-3.1-0.6-4.2-1.8c-2.3-2.3-2.3-6.1,0-8.5L62.8,7.3c2.3-2.3,6.1-2.3,8.5,0
	c2.3,2.3,2.3,6.1,0,8.5L15.5,71.5C14.4,72.7,12.8,73.3,11.3,73.3z"/>
</svg>
